{
	"actions": [
		{
			"id": "export",
			"label": "Exporteren als",
			"type": "dropdown",
			"data": {
				"children": [
					{
						"id": "export_csv",
						"label": "CSV",
						"type": "download",
						"data": {
							"url": "<[getSelectionZql()]>",
							"params": {
								"zapi_format": "csv"
							}
						}
					},
					{
						"id": "export_excel",
						"label": "XLS",
						"type": "download",
						"data": {
							"url": "<[getSelectionZql()]>",
							"params": {
								"zapi_format": "xls"
							}
						}
					},
					{
						"id": "export_oocalc",
						"label": "OO Calc",
						"type": "download",
						"data": {
							"url": "<[getSelectionZql()]>",
							"params": {
								"zapi_format": "calc"
							}
						}
					},
					{
						"id": "overdrachtsbestand",
						"label": "Overdrachtsbestand",
						"type": "download",
						"data": {
							"url": "/api/object/search/export/?zql=<[getSelectionZql()]>"
						}
					}
				]
			}
		}
	],
	"filters": {
		"name": "searchWidgetForm",
		"options": {
			"autosave": true,
			"method": "GET"
		},
		"fieldsets": [
			{
				"name": "fulltext",
				"title": "Trefwoorden",
				"description": "",
				"fields": [
					{
						"name": "fulltext",
						"type": "text",
						"default": null
					}
				]
			}
		],
		"actions": [
			{
				"name": "submit",
				"type": "submit",
				"label": "Submit"
			}
		],
		"promises": [
		]
	},
	"columns": {
		"templates": {
			"label": {
				"label": "Naam",
				"template": "<a href='/object/<[item.id]>' target=\"_blank\"><[item.label]></a>",
				"sort": false,
				"locked": true,
				"data": {
					"columns": []
				}
			},
			"actions": {
				"label": "Acties",
				"locked": true,
				"sort": false,
				"templateUrl": "/html/widget/search/action-menu.html",
				"data": {
					"columns": []
				},
				"dynamic": true
			},
			"date_modified": {
				"label": "Laatst gewijzigd",
				"sort": true,
				"data": { "columns": [] }
			},
			"date_created": {
				"label": "Datum aangemaakt",
				"sort": true,
				"data": { "columns": [] }
			}
		},
		"default": [
			"label",
			"actions"
		]
	},
	"resolve": "id",
	"sort": {
		"by": null,
		"order": null 
	},
	"style": {},
	"grouping": [
		{
			"label": "Alle resultaten",
			"by": null
		}
	]
}
