{
   "instance": {
         "id": 12,
         "interface_config" : {
            "accent_color" : "#FF0000",
            "api_key" : "B5wuE3dnL43EtWPD",
            "app_uri" : "https://vagrant.zaaksysteem.nl/meeting",
            "attribute_mapping" : [
               {
                  "attribute_type" : "magic_string",
                  "case_type_id" : 25,
                  "checked" : 0,
                  "external_name" : "vergaderingtitel",
                  "internal_name" : {
                     "searchable_object_id" : "vergadering_titel1",
                     "searchable_object_label" : "Vergadering titel",
                     "searchable_object_label_public" : "Vergadering titel",
                     "searchable_object_type" : "magicstring"
                  },
                  "optional" : 1
               },
               {
                  "attribute_type" : "magic_string",
                  "case_type_id" : 25,
                  "checked" : 0,
                  "external_name" : "vergaderingdatum",
                  "internal_name" : {
                     "searchable_object_id" : "vergadering_datum",
                     "searchable_object_label" : "Vergadering datum",
                     "searchable_object_label_public" : "Vergadering datum",
                     "searchable_object_type" : "magicstring"
                  },
                  "optional" : 1
               },
               {
                  "attribute_type" : "magic_string",
                  "case_type_id" : 25,
                  "checked" : 0,
                  "external_name" : "vergaderingtijd",
                  "internal_name" : {
                     "searchable_object_id" : "vergadering_tijd",
                     "searchable_object_label" : "Vergadering tijd",
                     "searchable_object_label_public" : "Vergadering tijd",
                     "searchable_object_type" : "magicstring"
                  },
                  "optional" : 1
               },
               {
                  "attribute_type" : "magic_string",
                  "case_type_id" : 25,
                  "checked" : 0,
                  "external_name" : "vergaderinglocatie",
                  "internal_name" : {
                     "searchable_object_id" : "vergadering_locatie",
                     "searchable_object_label" : "Vergadering locatie",
                     "searchable_object_label_public" : "Vergadering locatie",
                     "searchable_object_type" : "magicstring"
                  },
                  "optional" : 1
               },
               {
                  "attribute_type" : "magic_string",
                  "case_type_id" : 25,
                  "checked" : 0,
                  "external_name" : "vergaderingvoorzitter",
                  "internal_name" : {
                     "searchable_object_id" : "vergadering_voorzitter",
                     "searchable_object_label" : "Vergadering voorzitter",
                     "searchable_object_label_public" : "Vergadering voorzitter",
                     "searchable_object_type" : "magicstring"
                  },
                  "optional" : 1
               },
               {
                  "attribute_type" : "magic_string",
                  "case_type_id" : 26,
                  "checked" : 1,
                  "external_name" : "voorstelzaaknummer",
                  "include_system" : 1,
                  "internal_name" : {
                     "searchable_object_id" : "zaaknummer",
                     "searchable_object_label" : "zaaknummer",
                     "searchable_object_type" : "magicstring"
                  },
                  "optional" : 1
               },
               {
                  "attribute_type" : "magic_string",
                  "case_type_id" : 26,
                  "checked" : 1,
                  "external_name" : "voorstelonderwerp",
                  "internal_name" : {
                     "searchable_object_id" : "omschrijving",
                     "searchable_object_label" : "Omschrijving",
                     "searchable_object_label_public" : "Omschrijving",
                     "searchable_object_type" : "magicstring"
                  },
                  "optional" : 1
               },
               {
                  "attribute_type" : "magic_string",
                  "case_type_id" : 26,
                  "checked" : 1,
                  "external_name" : "voorstelportefeuillehouder",
                  "internal_name" : {
                     "searchable_object_id" : "portefeuillehouder1",
                     "searchable_object_label" : "Portefeuillehouder",
                     "searchable_object_label_public" : "Portefeuillehouder",
                     "searchable_object_type" : "magicstring"
                  },
                  "optional" : 1
               },
               {
                  "attribute_type" : "magic_string",
                  "case_type_id" : 26,
                  "checked" : 1,
                  "external_name" : "voorstelafdeling",
                  "internal_name" : {
                     "searchable_object_id" : "afdeling",
                     "searchable_object_label" : "Afdeling",
                     "searchable_object_label_public" : "Afdeling",
                     "searchable_object_type" : "magicstring"
                  },
                  "optional" : 1
               },
               {
                  "attribute_type" : "magic_string",
                  "case_type_id" : 26,
                  "checked" : 0,
                  "external_name" : "voorstelbeschrijving",
                  "internal_name" : {
                     "searchable_object_id" : "beschrijving",
                     "searchable_object_label" : "Beschrijving",
                     "searchable_object_label_public" : "Beschrijving",
                     "searchable_object_type" : "magicstring"
                  },
                  "optional" : 1
               }
            ],
            "casetype_meeting" : 25,
            "casetype_voorstel_item" : 26,
            "header_bgcolor" : "#1B5A3C",
            "header_bgimage" : "https://static1.squarespace.com/static/511a7de5e4b0d075328b20e0/5621818fe4b0007a0002e85d/562181e0e4b0501d40632ff4/1445111992361/CaitOppermann_SeaBluesTangier_1500.jpg",
            "medewerker" : {
               "id" : 3,
               "naam" : "beheerder",
               "object_type" : "medewerker",
               "username" : "beheerder"
            },
            "title_normal" : "Besluit Begroting en Verantwoording",
            "title_small" : "meeting"
         },
         "module" : "meetingapp",
         "name" : "APP - meeting"
      },
   "reference" : "98b335c7-2e7e-42e4-be4f-68374640c7c5",
   "type" : "interface"
}
