<?xml version="1.0" encoding="utf-8"?>
<!-- Generator: Adobe Illustrator 26.2.1, SVG Export Plug-In . SVG Version: 6.00 Build 0)  -->
<svg version="1.1" id="Laag_1" xmlns="http://www.w3.org/2000/svg" xmlns:xlink="http://www.w3.org/1999/xlink" x="0px" y="0px"
	 viewBox="0 0 359.7 106.5" style="enable-background:new 0 0 359.7 106.5;" xml:space="preserve">
<style type="text/css">
	.st0{fill:#BCBCBC;}
	.st1{fill:#019B67;}
	.st2{fill:#029B68;}
	.st3{fill:#242021;}
	.st4{fill:url(#SVGID_1_);}
</style>
<path class="st0" d="M6.4,106.3c-2.5,0-4.5-0.4-6.2-1.3c0.1-0.1,0.1-0.6,0.1-0.9c0.4-0.2,0.6-0.6,0.7-0.9c0-0.1,0.1-0.3,0.1-0.4
	c0.2-0.5,0.4-0.7,0.7-0.7c0.2,0,0.4,0.1,0.7,0.2c1.5,0.7,2.7,1,4.1,1c1.5,0,2.5-0.7,3-2c0.3-0.7,0.7-2.9,0.7-3.8
	c-0.9,1-1.9,1.9-3.3,2.1c-0.5,0.1-1,0.1-1.4,0.1c-2.1,0-3.3-1.2-3.6-3.5c-0.7-4.5,0.5-8.4,3.7-11.5c1-1,2.3-1.5,3.7-1.5
	c1.3,0,2.5,0.5,3.3,1.4c0.2,0.2,0.3,0.3,0.4,0.3c0.1,0,0.3-0.1,0.4-0.4c0-0.1,0.1-0.2,0.2-0.2c0-0.1,0.1-0.1,0.1-0.2
	c0.4-0.5,0.6-0.8,1-0.8c0.2,0,0.5,0.1,1,0.3c0.9,0.5,1.4,0.8,1.5,1.1c0.1,0.4-0.1,0.8-0.7,1.7c-0.7,1.4-1,2.9-1.3,4.3
	c-0.1,0.5-0.2,1.1-0.4,1.6c-0.3,1.3-0.5,2.6-0.7,3.9c-0.2,1.5-0.5,3.1-0.9,4.6C12.4,104.5,10.1,106.3,6.4,106.3z M9.7,86.4
	c-0.8,0-1.5,0.4-2,1.2c-1.5,2.2-1.8,4.8-1.9,6.8V95c0,1.2,0.5,1.8,1.5,1.8l0,0c0.3,0,0.6-0.1,0.9-0.2c1-0.3,1.6-0.8,2-1.6
	c0.9-1.6,1.2-3.4,1.5-5.2c0.1-0.7,0.3-1.5,0.4-2.3c0-0.2,0-0.3-0.2-0.4C11.1,86.7,10.4,86.4,9.7,86.4z"/>
<path class="st1" d="M226.6,42.4c-0.3,0-0.5-0.1-0.6-0.2c-0.1-0.2-0.1-0.4,0-0.7c0.3-1.4,0.6-2.8,0.9-4.2c0.2-1.1,0.5-2.1,0.7-3.2
	c0.6-2.7,0-5.4-1.4-7.6c-1.3-2-3.3-3.4-5.7-3.8c-0.9-0.2-1.8-0.3-2.7-0.3c-2.9,0-5.7,1-8.4,3.1c-3.2,2.5-5.1,5.8-5.9,10.3
	c-0.2,1.1-0.4,2.3-0.7,3.4c-0.2,0.9-0.4,1.7-0.6,2.6c-0.1,0.5-0.3,0.6-0.8,0.6h-8.1c-0.2,0-0.4,0-0.5-0.1c-0.1-0.1-0.1-0.2,0-0.5
	c0.2-1.3,1.2-6.8,1.5-8.2c1.5-8,3-16,4.5-23.9c0.3-1.5,0.6-3,0.9-4.5c0.3-1.5,0.5-3,0.8-4.5c0.1-0.5,0.3-0.5,0.7-0.5h5.4
	c0.3,0,0.4,0,0.5,0.1c0.1,0.1,0.1,0.3,0,0.6c-0.1,0.6-0.2,1.2-0.4,1.8c-0.2,1.1-0.5,2.2-0.6,3.4l5.4,0c0.4,0,0.5-0.2,0.6-0.6
	c0.1-0.6,0.2-1.1,0.3-1.7c0.2-1,0.4-2,0.6-3c0.1-0.5,0.3-0.7,0.8-0.7h4.6c0.3,0,0.5,0.1,0.6,0.2c0.1,0.1,0.1,0.3,0,0.6
	c-0.3,1.6-0.6,3.2-1,4.8c0,0.2,0,0.3,0,0.4c0.1,0.1,0.2,0.1,0.4,0.1h4.9c0.6,0,0.6-0.3,0.6-0.7c0.2-0.8,0.3-1.6,0.4-2.3
	c0.2-0.8,0.3-1.6,0.5-2.4c0.1-0.4,0.2-0.6,0.7-0.6h4.8c0.3,0,0.4,0,0.5,0.2c0.1,0.1,0.1,0.3,0,0.5c-0.2,0.9-0.4,1.9-0.6,2.8
	c-0.2,0.8-0.3,1.6-0.5,2.4l5.5,0c0.3,0,0.4-0.2,0.4-0.4c0-0.1,0-0.1,0.1-0.2c0.1-0.6,0.2-1.1,0.3-1.7c0.2-1,0.4-2,0.6-3
	c0.1-0.5,0.3-0.6,0.8-0.6h5.3c0.3,0,0.5,0,0.6,0.2c0.1,0.1,0.1,0.3,0,0.7l-0.1,0.5c-0.6,3.1-1.1,6.2-1.7,9.5
	c-0.6,3.5-1.2,7-1.8,10.5c-0.6,3.5-1.2,7-1.8,10.5l-0.3,1.4c-0.5,2.9-1,5.6-1.4,8.4c-0.1,0.4-0.2,0.7-0.7,0.7H226.6z"/>
<path class="st2" d="M144.5,99.5c-0.3,0-0.5,0-0.6-0.2c-0.1-0.1-0.1-0.3,0-0.7c0.9-4.5,1.7-8.9,2.5-13.4c0.8-4.4,1.6-8.9,2.5-13.3
	c0.9-4.9,1.8-9.7,2.8-14.6c0.7-3.9,1.5-7.9,2.2-11.9c0.6-3.4,1.3-6.8,1.9-10.1c0.6-3.4,1.2-6.7,1.9-10.1c0.1-0.6,0.3-0.6,0.8-0.6h34
	c0.3,0,0.5,0,0.6,0.2c0.1,0.1,0.1,0.3,0,0.6c-0.5,2.5-1,5-1.4,7.6c-0.1,0.5-0.3,0.6-0.8,0.6h-23.4c-0.6,0-0.8,0.1-0.9,0.7
	c-0.8,4.4-1.6,8.8-2.4,13.1c-0.8,4.4-1.7,8.8-2.5,13.2c-0.9,4.9-1.8,9.7-2.8,14.6c-0.7,3.9-1.5,7.9-2.2,11.9
	c-0.1,0.5-0.2,0.9-0.2,1.4c-0.1,0.5-0.2,1-0.3,1.5c0,0.2,0,0.4,0,0.4c0.1,0.1,0.2,0.1,0.4,0.1h17.7c-0.6,3.1-1.1,6.1-1.6,8.9
	c0,0,0,0,0,0H144.5z"/>
<path class="st3" d="M197.8,99.6c0.7-3.5,1.3-6.9,1.9-10.2l3-16c0.2-1.3,0.2-2.5-0.1-3.6c-0.5-2.1-2-3.4-4.3-3.6
	c-0.4,0-0.8-0.1-1.2-0.1c-3.3,0-6.2,1.4-8.9,4.1c-0.1,0.1-0.2,0.3-0.2,0.4c0,0.1,0,0.1-0.1,0.2c-0.8,4.6-1.7,9.3-2.6,13.9
	c-0.9,4.7-1.7,9.3-2.6,14c0,0.1,0,0.2,0,0.2c0,0.2-0.1,0.5-0.5,0.5c-3.1-0.1-6.2-0.1-9.3-0.1c0.2-1.5,0.5-3,0.8-4.5
	c0.3-1.5,0.5-2.9,0.8-4.4c0.8-4.5,4-22.4,4.8-26.8c0.4-2.1,0.8-4.2,1.1-6.3c0.4-2.1,0.7-4.2,1.1-6.3c0.6-2.9,1.1-5.9,1.6-8.9l9.1,0
	c0.2,0,0.3,0,0.4,0.1c0.1,0.1,0.1,0.2,0,0.3c0,0.1,0,0.1,0,0.2c-0.2,1.2-0.4,2.4-0.6,3.5c-0.2,1.2-0.4,2.3-0.6,3.5l-0.1,0.6
	c-0.6,3.5-1.1,7-1.7,10.4l0,0.3c0.5-0.3,0.9-0.5,1.4-0.8c0.5-0.2,0.9-0.5,1.4-0.7c2.5-1.1,5.1-1.6,7.5-1.6c1.4,0,2.8,0.2,4.2,0.5
	c4.8,1.2,7.9,4.9,8.4,9.9c0.3,2.8-0.2,5.3-0.6,8l-0.2,1c-0.7,3.6-1.4,7.2-2,10.8c-0.7,3.6-1.3,7.2-2,10.8c0,0.1,0,0.1,0,0.2
	c0,0.2-0.1,0.4-0.5,0.4H197.8z"/>
<path class="st3" d="M228.9,100.3c-1.1,0-2.3-0.1-3.3-0.3c-4.5-0.8-7.7-4.2-8.3-8.8c-0.4-2.6,0.1-5,0.5-7.5l0.2-0.9
	c1.6-8.1,3-15.9,4.3-23.3c0.1-0.6,0.3-0.7,0.9-0.7h8.3c0.3,0,0.5,0,0.6,0.1c0.1,0.1,0.1,0.3,0,0.6c-1.4,7.5-3.1,16.4-4.7,25.3
	c-0.2,1.1-0.3,2.2-0.3,3.3c0.2,2.3,1.4,3.7,3.6,4.1c0.7,0.1,1.4,0.2,2.1,0.2c3.8,0,7.1-1.9,9.4-5.5c1.2-1.9,1.7-4.3,2.1-6.3
	c0.5-3.2,1.1-6.4,1.7-9.6c0.7-3.8,1.4-7.6,2-11.4c0.1-0.5,0.2-0.7,0.7-0.7h8.4c0.2,0,0.4,0,0.5,0.1c0.1,0.1,0.1,0.2,0,0.5
	c-1.1,6-2.3,12.1-3.4,18.1c-1.1,6-2.2,12.1-3.4,18.1c-0.1,0.5-0.2,1-0.3,1.5c-0.1,0.5-0.2,1.1-0.3,1.6c-0.1,0.4-0.2,0.7-0.7,0.7
	h-8.3c-0.3,0-0.5,0-0.6-0.2c-0.1-0.1-0.1-0.3-0.1-0.6c0.1-0.6,0.2-1.3,0.2-2l-0.7,0.4c-1.4,0.8-2.9,1.6-4.4,2
	C233.3,100,231.1,100.3,228.9,100.3z"/>
<path class="st3" d="M296.5,100.6c-4.2,0-8.5-1.2-12.7-3.6c-0.2-0.1-0.3-0.1-0.4-0.2c0-0.1,0-0.2,0.1-0.4c1.2-2.5,2.6-4.8,3.8-7
	l0.8-1.5c1.8,1.6,3.6,3.1,5.9,3.9c1.3,0.4,2.5,0.7,3.6,0.7c1.4,0,2.7-0.3,3.9-1.1c0.8-0.4,1.2-0.8,1.6-1.4c1-1.5,1.6-3.7-0.7-5.4
	c-0.9-0.7-1.9-1.2-2.8-1.7l-0.6-0.3c-0.6-0.3-1.2-0.7-1.8-1c-1.2-0.6-2.4-1.3-3.6-2c-3-1.9-4.6-4.3-4.9-7.3
	c-0.4-4.6,1.3-8.3,5.1-10.9c3.1-2.1,6.7-3.2,10.5-3.2c1.5,0,3,0.2,4.6,0.5c2.7,0.5,5.2,1.5,7.7,2.5c0.3,0.1,0.4,0.2,0.4,0.3
	c0.1,0.2,0,0.3-0.1,0.6c-1.3,2.5-2.6,5-3.8,7.6c-0.1,0.3-0.3,0.4-0.4,0.4c-0.1,0-0.3-0.1-0.4-0.3c-1.8-1.5-3.5-2.5-5.4-3.2
	c-0.9-0.3-1.8-0.4-2.7-0.4c-1.4,0-2.6,0.4-3.8,1.1c-1,0.6-1.6,1.4-1.7,2.3c-0.1,0.9,0.3,1.9,1.1,2.8c1,1,2.2,1.6,3.4,2.3
	c0.5,0.3,1,0.5,1.5,0.8c0.5,0.3,1,0.5,1.5,0.8c0.8,0.4,1.5,0.8,2.2,1.2c4.6,2.5,6.3,6.2,5.3,11.4c-1,5-4.2,8.4-9.4,10.2
	C302,100.1,299.2,100.6,296.5,100.6z"/>
<path class="st3" d="M335.4,100.5c-1.5,0-2.6-0.2-3.6-0.5c-4.1-1.3-6.7-5-6.8-9.6c0-2.2,0.5-4.3,1-6.4l0.3-1.1
	c1.1-5.2,2.3-10.5,3.5-15.6c0-0.3,0.1-0.5,0-0.6c0-0.1-0.1-0.1-0.3-0.1c-0.1,0-0.2,0-0.3,0c-1.4-0.1-2.7-0.1-4-0.1l0.7-3.6l0.7-3.6
	c0.1-0.4,0.3-0.4,0.6-0.4h3.5c0.5,0,0.7-0.1,0.8-0.7c0.4-2.4,0.9-4.8,1.4-7.2c0.1-0.3,0.2-0.5,0.5-0.7c3.8-1.3,7-2.5,10.1-3.7l0.3,0
	c-0.4,1.5-0.7,3-1,4.5c-0.5,2.3-1,4.6-1.6,6.9c-0.1,0.3-0.1,0.5,0,0.6c0.1,0.1,0.3,0.2,0.7,0.2h9.6c0.3,0,0.5,0,0.6,0.1
	c0.1,0.1,0.1,0.2,0,0.5c-0.2,1-0.5,2.1-0.7,3.2c-0.2,1.1-0.4,2.1-0.7,3.2c-0.1,0.5-0.3,0.7-0.8,0.7h-9.9c-0.3,0-0.6,0-0.7,0.5
	c-0.6,2.9-1.3,5.7-1.9,8.6c-0.8,3.5-1.6,7.1-2.4,10.7c-0.2,0.8-0.2,1.7-0.1,2.7c0.2,1.7,1.2,2.8,3,3.2c0.5,0.1,0.9,0.1,1.4,0.1
	c1,0,2-0.2,3-0.5c0.6-0.2,1.2-0.4,1.8-0.6c0.6-0.2,1.1-0.4,1.7-0.6c0.2-0.1,0.3-0.1,0.4-0.1c0.2,0,0.3,0.2,0.3,0.5v7.5
	c0,0.5-0.2,0.6-0.6,0.7c-2.7,0.8-5.5,1-8.2,1.2C336.9,100.5,336.1,100.5,335.4,100.5z"/>
<path class="st3" d="M269.6,100c-4.7,0-7.5-3-7.5-7.9c0-4.4,0.8-8.7,1.6-12.6c1.2-6.1,2.5-12.2,3.8-18.3c1.3-6.1,2.5-12.2,3.8-18.3
	c0.1-0.5,0.3-0.8,0.9-0.8h8c0.3,0,0.5,0,0.6,0.2c0.1,0.1,0.1,0.3,0.1,0.6c-2.8,13.1-5.5,26.5-8.1,39.4l-0.1,0.3
	c-0.5,2.6-1.1,5.6-1.2,8.8c0,2.9,1.4,4.6,4.3,4.9c0,0,0,0,0,0c0.2,0,0.4,0,0.6,0.1c-1.3,2.1-3.1,3.2-5.6,3.5
	C270.3,100,269.9,100,269.6,100z"/>
<path class="st0" d="M51.6,99.7c-0.1,0-0.2,0-0.3,0c-0.3,0-0.7-0.1-1-0.1c-0.3,0-0.7,0-1,0.1c-0.1,0-0.2,0-0.2,0
	c-0.2,0-0.4-0.1-0.5-0.2c-0.1-0.2-0.1-0.4,0-0.8l0.2-1c0.4-1.8,0.8-3.4,1.2-5.2c0.1-0.5,0.2-1,0.4-1.5c0.2-1,0.5-1.9,0.5-2.9
	c0-0.5,0-1.1-0.6-1.4c-0.2-0.1-0.4-0.1-0.6-0.1c-0.3,0-0.7,0.1-1,0.4c-1.1,0.8-1.6,1.8-2.1,3.1c-0.6,1.4-0.9,2.9-1.2,4.3
	c-0.1,0.6-0.3,1.2-0.4,1.8c-0.2,0.9-0.4,1.8-0.6,2.8c-0.1,0.5-0.3,0.6-0.8,0.6H41c-0.3,0-0.4,0-0.5-0.1c-0.1-0.1-0.1-0.3,0-0.6
	c0.4-1.7,0.8-3.5,1.1-5.2c0.4-1.7,0.7-3.4,1.1-5.2c0.1-0.6,0.1-1.3-0.5-1.7c-0.2-0.1-0.4-0.2-0.6-0.2c-0.3,0-0.7,0.1-1,0.4
	c-1.1,0.8-1.6,1.8-2.1,3.1c-0.6,1.4-0.9,2.9-1.2,4.3c-0.1,0.6-0.3,1.2-0.4,1.8c-0.2,0.9-0.4,1.8-0.6,2.8c-0.1,0.5-0.3,0.6-0.8,0.6
	H33c-0.3,0-0.5,0-0.6-0.2c-0.1-0.1-0.1-0.3,0-0.6c0.4-1.7,0.8-3.5,1.1-5.2c0.4-1.7,0.7-3.4,1.1-5.2c0.2-0.9,0.4-2.1,0-3.1
	c-0.1-0.4-0.1-0.6,0-0.8c0.1-0.2,0.3-0.3,0.6-0.4c0.3-0.1,0.6-0.2,0.9-0.3c0.3-0.1,0.6-0.3,0.9-0.3c0.3-0.1,0.5-0.1,0.6-0.1
	c0.4,0,0.6,0.3,0.7,1c0.2,0.6,0.3,1.1,0.3,1.6c0,0.2,0,0.3,0.1,0.5c1.1-1.3,2.1-2.2,3.3-2.7c0.7-0.3,1.3-0.4,1.9-0.4
	c0.8,0,1.6,0.3,2.1,1c0.4,0.5,0.6,1.1,0.7,1.8l0.1,0.4c0.9-1.2,2.1-2.4,3.9-2.9c0.5-0.2,1-0.2,1.4-0.2c0.2,0,0.3,0,0.5,0
	c1.5,0.3,2.3,1.3,2.3,2.8c0.1,1.5-0.3,3-0.7,4.5l-0.1,0.5l-0.3,1.2c-0.5,2.2-1,4.3-1.4,6.5C52.4,99.4,52.1,99.7,51.6,99.7z"/>
<path class="st0" d="M62.6,100.3c-3.1,0-5-1.5-5.5-4.1c-0.6-3.5,0.1-6.7,2.2-9.5c1.7-2.2,3.9-3.4,6.4-3.4c0.1,0,0.2,0,0.3,0
	c2.5,0,4,1,4.5,2.8c0.7,2.7-0.3,5-2.8,6.2c-1.2,0.6-2.7,1-4.5,1.1c-0.2,0-0.4,0-0.6,0.1c-0.2,0-0.4,0.1-0.7,0.1c-0.1,0-0.2,0-0.4,0
	c-0.1,0-0.2,0-0.2,0c-0.3,0-0.4,0.1-0.5,0.2c-0.1,0.2-0.1,0.4-0.1,0.6c0.1,1.6,1.1,2.5,2.8,2.5c0.1,0,0.2,0,0.3,0
	c1.1-0.1,2.1-0.6,3-1.1c0.3-0.1,0.4-0.2,0.6-0.2c0.3,0,0.5,0.2,0.5,0.7c0,0,0.1,0.1,0.1,0.1c0.1,0.4,0.3,0.7,0.4,0.9
	c0.2,0.5,0.3,0.8,0.2,1c-0.1,0.2-0.5,0.4-1.2,0.7l-0.6,0.2C65.5,100.2,63.9,100.3,62.6,100.3z M65.3,86.4c-0.6,0-1.1,0.1-1.6,0.4
	c-1,0.7-1.5,1.7-2,3c-0.1,0.4-0.2,0.6-0.1,0.7c0.1,0.1,0.4,0.1,1.1,0.1c0.4,0,1,0,1.6-0.2c1.1-0.3,2.1-0.6,2.5-1.7
	c0.3-0.6,0.3-1.3,0-1.8c-0.2-0.3-0.5-0.6-0.9-0.6C65.6,86.4,65.4,86.4,65.3,86.4z"/>
<path class="st0" d="M77.3,100.3c-3.1,0-5.2-2-5.4-5c-0.3-3.6,0.7-6.8,2.9-9.3c1.5-1.7,3.4-2.6,5.5-2.7c0.1,0,0.3,0,0.4,0
	c1.8,0,3.2,0.4,4,1.3c0.7,0.8,1.1,2,0.9,3.5c-0.1,1.8-1.1,3.2-3,4.2c-1.4,0.7-3.1,1-4.5,1.2c-0.2,0-0.4,0-0.6,0.1
	c-0.2,0-0.4,0.1-0.6,0.1c-0.1,0-0.2,0-0.3,0c-0.1,0-0.2,0-0.2,0c-0.3,0-0.4,0.1-0.6,0.2c-0.2,0.2-0.1,0.5-0.1,0.9
	c0.2,1.5,1.1,2.3,2.6,2.3c0.1,0,0.2,0,0.3,0c1-0.1,2-0.4,3.1-1.1c0.3-0.1,0.5-0.2,0.6-0.2c0.3,0,0.5,0.2,0.6,0.7
	c0,0.2,0.1,0.3,0.2,0.4c0.7,1.6,0.7,1.7-0.5,2.2l-0.5,0.2c-1.4,0.7-2.9,1.1-4.7,1.1L77.3,100.3z M80.2,86.3c-0.4,0-0.7,0.1-1.2,0.2
	c-1.5,0.6-2.1,1.9-2.5,3.2c-0.2,0.5-0.3,0.7-0.2,0.8c0.1,0.1,0.4,0.1,1.1,0.1c0.6,0,1.6-0.2,2.5-0.5c0.9-0.3,1.4-0.8,1.7-1.5
	c0.2-0.6,0.2-1.3-0.1-1.7c-0.2-0.3-0.5-0.6-0.8-0.6C80.5,86.3,80.4,86.3,80.2,86.3z"/>
<path class="st0" d="M23.8,100.5c-0.5,0-1.1,0-1.6-0.1c-2.5-0.5-3.9-2.2-4.1-4.9c-0.1-0.4-0.1-0.6-0.1-0.9c0-0.1,0-0.2,0-0.3
	c0.1-3.9,1.3-6.6,3.6-8.7c1.5-1.4,3.3-2.1,5.2-2.1c0.8,0,1.7,0.1,2.6,0.4c1.9,0.6,2.6,2.7,2.5,4.3c-0.3,2.7-2.1,4.4-5.4,5.1
	c-0.8,0.2-1.6,0.3-2.4,0.3c-0.5,0-1.1,0.1-1.6,0.2c-0.4,0.1-0.6,0.1-0.5,0.6c0.2,2,0.9,2.7,2.6,2.9c0.1,0,0.2,0,0.3,0
	c0.8,0,1.6-0.3,2.6-0.8c0.6-0.3,0.9-0.5,1.2-0.5c0.4,0,0.5,0.4,0.9,1.3c0.3,0.6,0.4,1,0.3,1.3c-0.1,0.3-0.5,0.5-1.1,0.8
	C26.9,100.1,25.3,100.5,23.8,100.5z M26.2,86.3c-0.5,0-1,0.1-1.4,0.4c-1.2,0.7-1.7,1.8-2.2,2.9c-0.2,0.6-0.3,0.9-0.2,1
	c0.1,0.1,0.4,0.1,1,0.1c1.3,0,2.6-0.4,3.6-1c0.6-0.4,0.9-1,0.9-1.7c0-0.5-0.2-1-0.6-1.4C27.1,86.4,26.7,86.3,26.2,86.3z"/>
<path class="st0" d="M121.3,100.5c-0.7,0-1.4-0.1-2.1-0.2c-2.1-0.5-3.6-2.5-3.7-4.8c0.1-0.5,0.1-0.9,0.1-1.3c0-3.6,1.2-6.5,3.6-8.6
	c1.6-1.4,3.4-2.1,5.3-2.1c0.7,0,1.5,0.1,2.2,0.3c1.9,0.5,2.8,2.2,2.6,4.5c-0.2,2.8-2.2,4-4.4,4.8c-1.4,0.5-2.8,0.6-4.2,0.7l-0.7,0
	c-0.3,0-0.5,0.1-0.5,0.2c-0.1,0.1-0.1,0.3,0,0.6c0.2,1.8,0.9,2.5,2.5,2.5c0.4,0,0.8,0,1.3-0.1c1-0.1,1.8-0.6,2.5-1
	c0.1-0.1,0.3-0.1,0.4-0.1c0.2,0,0.4,0.2,0.5,0.4l0.6,1.5c0.3,0.6,0.1,0.9-0.4,1.2c-1.1,0.6-2.4,1-3.9,1.3
	C122.3,100.4,121.8,100.5,121.3,100.5z M123.9,86.3c-0.4,0-0.8,0.1-1.3,0.3c-1.3,0.6-1.9,1.9-2.3,3c-0.2,0.5-0.3,0.8-0.2,0.9
	c0.1,0.1,0.5,0.1,1.2,0.1l0.1,0c0.9-0.1,1.9-0.2,2.9-0.8c0.9-0.6,1.6-1.8,1.1-2.8C125.1,86.6,124.6,86.3,123.9,86.3z"/>
<path class="st0" d="M89.4,99.9c-0.1,0-0.1,0-0.2,0c-0.2,0-0.5,0-0.7,0c-0.2,0-0.5,0-0.7,0c-0.2,0-0.5,0-0.7,0
	c-0.4,0-0.6-0.1-0.8-0.2c-0.1-0.2-0.1-0.4-0.1-0.7l0.2-0.8c0.3-1.4,0.7-2.8,0.9-4.2c0.5-2.1,0.9-4.2,1.3-6.3c0.2-0.8,0-1.6-0.2-2.3
	c-0.1-0.4,0-0.6,0.3-0.8c0.6-0.2,1.1-0.4,1.7-0.6c0.3-0.1,0.6-0.3,0.9-0.4c0.1-0.1,0.2-0.1,0.3-0.1c0.2,0,0.3,0.2,0.4,0.5
	c0.5,0.7,0.6,1.7,0.6,2.6c0.8-1.1,1.5-1.8,2.3-2.3c1-0.6,1.9-0.9,2.7-0.9c0.7,0,1.4,0.2,2,0.6c0.8,0.5,1.3,1.3,1.3,2.4
	c0.1,1.2-0.2,2.5-0.4,3.7l-0.2,0.7c-0.3,1.3-0.6,2.7-0.9,4.1c-0.3,1.4-0.6,2.7-0.9,4.1c-0.1,0.6-0.4,0.7-0.9,0.7h-2.4
	c-0.3,0-0.5-0.1-0.6-0.2c-0.1-0.1-0.1-0.3,0-0.6c0.2-1.1,0.5-2.2,0.8-3.3c0.3-1.1,0.5-2.2,0.8-3.3c0.4-1.5,0.6-2.7,0.8-3.7
	c0.1-0.6,0-1.1-0.4-1.4c-0.2-0.2-0.4-0.3-0.7-0.3c-0.2,0-0.5,0.1-0.9,0.2c-1.6,0.6-2.2,2.1-2.7,3.4c-0.7,2.1-1.2,4.2-1.6,6.3
	c-0.1,0.7-0.3,1.5-0.4,2.2C90.2,99.5,90,99.9,89.4,99.9z"/>
<path class="st0" d="M108.5,100.2c-0.4,0-0.9,0-1.3-0.1c-1.1-0.2-1.8-0.6-2.3-1.2c-0.5-0.7-0.6-1.6-0.4-2.8c0.3-2,0.8-4,1.2-5.9
	c0.2-0.9,0.4-1.7,0.6-2.6c0.1-0.4,0.1-0.6,0-0.7c-0.1-0.1-0.3-0.1-0.8-0.1c-0.9,0-1.3,0-1.5-0.2c-0.2-0.2-0.1-0.7,0.1-1.5
	c0.2-0.8,0.5-1.1,1.2-1.1c0.1,0,0.2,0,0.3,0c0.2,0,0.4,0,0.6,0c0.8,0,0.8-0.2,1-1.2c0.2-0.7,0.3-1.4,0.4-2l0-0.2
	c0.1-0.6,0.4-0.9,1-0.9c0.6,0,1.1-0.1,1.7-0.2c0.2,0,0.4-0.1,0.6-0.1c0.1,0,0.2,0,0.2,0c0.2,0,0.4,0.1,0.5,0.2
	c0.1,0.2,0.1,0.4,0,0.8c-0.1,0.5-0.3,1.1-0.4,1.6c-0.1,0.5-0.2,1.1-0.4,1.6c0,0.2,0,0.4,0,0.5c0.1,0.1,0.2,0.1,0.5,0.1h3.5
	c0.3,0,0.6,0.1,0.7,0.2c0.1,0.1,0.1,0.3,0,0.6l0,0.1c-0.9,1.9-0.9,1.9-3.1,1.9c-0.2,0-0.3,0-0.5,0c-0.2,0-0.3,0-0.5,0
	c-0.2,0-0.3,0-0.4,0c-0.1,0-0.1,0-0.2,0c-0.5,0-0.7,0.4-0.8,0.8c-0.2,1.2-0.5,2.5-0.7,3.8c-0.2,1.3-0.5,2.5-0.7,3.8
	c-0.1,0.6-0.1,1.1,0.2,1.4c0.2,0.3,0.5,0.4,1,0.4c0.1,0,0.3,0,0.5,0c0.7-0.1,1.3-0.2,1.9-0.5c0.2-0.1,0.3-0.1,0.4-0.1
	c0.2,0,0.4,0.1,0.4,0.4c0,0.1,0.1,0.3,0.1,0.4c0,0.3,0.1,0.5,0.2,0.7c0.2,0.4,0.2,0.7,0.1,0.9c-0.1,0.3-0.4,0.5-0.9,0.6
	C111.4,99.8,110,100.2,108.5,100.2z"/>
<path class="st2" d="M173.3,51.2c-0.3,0-0.5,0-0.6-0.1c-0.1-0.1-0.1-0.3-0.1-0.6c0.5-2.4,1-5,1.6-7.7l0-0.1c0.1-0.2,0.1-0.4,0.3-0.4
	c0,0,0.1,0,0.1,0c1.6-0.1,3.2-0.1,4.8-0.1c1.3,0,2.4,0,3.5,0.1c-0.4,2.8-1,5.8-1.6,8.9c0,0,0,0,0,0H173.3z"/>
<linearGradient id="SVGID_1_" gradientUnits="userSpaceOnUse" x1="240.1329" y1="36.1439" x2="359.4572" y2="36.1439">
	<stop  offset="0" style="stop-color:#019B67"/>
	<stop  offset="8.780263e-02" style="stop-color:#059B6B"/>
	<stop  offset="0.1693" style="stop-color:#0F9A76"/>
	<stop  offset="0.2482" style="stop-color:#219889"/>
	<stop  offset="0.3252" style="stop-color:#3A96A3"/>
	<stop  offset="0.3936" style="stop-color:#5794C1"/>
	<stop  offset="1" style="stop-color:#A2BEE3"/>
</linearGradient>
<path class="st4" d="M358.5,27.3c-2.1-1.5-4.6-2.3-7.3-2.5c-0.9-0.1-1.7-0.1-2.5-0.1c-2.9,0-5.5,0.4-8,1.3c-3.4,1.2-6.4,2.8-9.2,4.9
	c0,0,0,0-0.1,0c-1.6,1-3.1,2-4.5,3.1l-0.1,0.1l0,0l-1,0.7c0,0,0,0,0,0c-1.8,1.1-3.6,2.2-5.6,3c0,0,0,0,0,0.1c-2,0.7-4.1,1-6.3,1
	c-0.1,0-0.2,0-0.4,0c-0.2,0-0.3,0-0.5,0c0,0,0-0.1,0-0.1c-2.8-0.2-4.8-1.4-6.4-3.8c-0.4-0.6-0.8-1.2-1.2-1.8c-0.2-0.3-0.5-0.7-0.7-1
	c0,0,0,0,0,0c-2.2-3.4-4.6-5.3-7.5-6.3l0,0c-0.2-0.1-0.4-0.2-0.7-0.3c-0.2-0.1-0.3-0.2-0.5-0.2c-2-0.6-3.9-0.6-5.6-0.6
	c-0.6,0-1.2,0-1.9,0c-0.6,0-1.3,0-1.9,0.1c0,0,0,0,0,0h-0.8c-0.1,0-0.2,0-0.3,0v0h-0.1c-0.5,0-1.1-0.1-1.6-0.1c-0.5,0-1,0-1.5,0.1
	h-1.3l0,0c-0.9,0-1.8-0.1-2.7-0.1c-0.9,0-1.8,0-2.8,0.1c0,0,0,0,0,0h-0.7c-0.4,0-0.8,0-1.2,0c-0.5,0-1.1,0-1.6,0h-1.2l0,0
	c-0.8-0.1-1.5-0.1-2.2-0.1c-0.6,0-1.2,0-1.9,0.1h-0.1c0,0,0,0-0.1,0H242c-0.3,0-0.4,0.2-0.4,0.4c-0.3,2.3-0.8,4.5-1.2,6.9l-0.2,1.1
	c0,0.2,0,0.3,0,0.4c0.1,0.1,0.2,0.1,0.3,0.1c0.1,0,0.1,0,0.2,0l0.6,0c0,0,0,0,0,0H267c0,0,0,0,0,0l0.8,0c0,0,0,0,0,0h0.8
	c0,0,0,0-0.1,0c0.4,0,0.7,0,1.1,0c0.4,0,0.7,0,1.1,0c0.2,0,0.4,0,0.6,0h0.4c0,0,0,0,0,0l1.8,0c0,0,0,0,0,0h0.6h2.1c0,0,0,0,0,0
	c0,0,0,0,0,0h5.4c0,0,0,0,0,0h5.7c0,0,0,0,0,0h2.5c0.1,0,0.1,0,0.2,0c2.2,0.1,4,0.9,5.4,2.4c0.5,0.6,1,1.3,1.4,1.9
	c0.4,0.6,0.9,1.3,1.4,1.9c0,0,0,0,0,0l0.2,0.2c0.3,0.6,0.8,1.2,1.2,1.7c1.8,2.3,3.8,3.9,6.2,4.7c0,0,0,0,0,0c0,0,0,0,0,0
	c0,0,0,0,0,0c0,0,0,0,0-0.1c1.9,0.8,3.8,1.2,6.1,1.2c0.6,0,1.1,0,1.7-0.1c0,0,0,0.1,0,0.1c0,0,0,0,0,0c0,0,0,0,0,0h0
	c2.3-0.1,4.7-0.5,7.4-1.3c0,0,0,0,0-0.1c1.7-0.6,3.3-1.3,4.7-2.1l1.1-0.5l1.2-0.8c0.2-0.1,0.5-0.3,0.7-0.4l0.3-0.2l0,0
	c1.1-0.7,2.2-1.4,3.3-2.3c0,0,0,0,0,0.1c0,0,0,0,0,0c0,0,0,0,0,0c0,0,0,0,0,0c0.5-0.3,0.9-0.6,1.4-1c0.5-0.3,0.9-0.6,1.4-0.9
	c2.3-1.5,4.8-3.1,7.7-3.9c1.7-0.5,3.4-0.5,4.9-0.5c0.5,0,0.9,0,1.4,0c0.5,0,0.9,0,1.4,0c2.6,0,4.4,1,5.6,3l0.3,0.4
	c0.3,0.5,0.6,1,1.1,1.4c0.1-0.1,0.1-0.2,0.1-0.2c0.5-2.9,1-6,1.6-8.9C359.6,28.5,359.3,27.8,358.5,27.3z"/>
</svg>
