<?xml version="1.0" standalone="no"?>
<!DOCTYPE svg PUBLIC "-//W3C//DTD SVG 20010904//EN"
 "http://www.w3.org/TR/2001/REC-SVG-20010904/DTD/svg10.dtd">
<svg version="1.0" xmlns="http://www.w3.org/2000/svg"
 width="326.000000pt" height="326.000000pt" viewBox="0 0 326.000000 326.000000"
 preserveAspectRatio="xMidYMid meet">
<metadata>
Created by potrace 1.14, written by Peter Selinger 2001-2017
</metadata>
<g transform="translate(0.000000,326.000000) scale(0.100000,-0.100000)"
fill="#000000" stroke="none">
<path d="M1421 3243 c-478 -63 -914 -348 -1170 -766 -63 -103 -161 -330 -161
-372 0 -13 192 -15 1550 -15 853 0 1550 1 1550 3 0 19 -67 192 -102 262 -200
405 -571 715 -1007 841 -189 55 -458 74 -660 47z"/>
<path d="M53 1967 c-15 -24 -33 -202 -33 -328 -1 -213 1 -220 72 -279 129
-108 194 -94 385 83 195 179 315 234 497 224 162 -8 263 -60 442 -228 130
-122 164 -143 228 -143 28 0 65 7 81 16 17 9 85 65 152 124 192 172 294 224
454 232 107 5 172 -9 270 -58 64 -33 182 -125 249 -195 112 -117 195 -148 282
-106 24 11 58 35 75 53 30 31 33 40 44 148 6 63 8 151 5 195 -9 113 -27 237
-37 255 -7 13 -193 15 -1584 15 -867 0 -1579 -4 -1582 -8z"/>
<path d="M853 1545 c-108 -30 -179 -77 -341 -226 -115 -106 -182 -139 -276
-139 -49 0 -85 7 -115 20 -24 11 -46 18 -48 16 -6 -5 42 -143 84 -241 172
-402 533 -732 968 -883 433 -152 955 -91 1356 158 269 167 496 418 619 686 32
69 102 265 97 270 -2 2 -23 -4 -47 -12 -31 -11 -67 -15 -116 -12 -93 6 -131
29 -271 159 -178 166 -263 211 -398 212 -140 2 -240 -50 -429 -223 -129 -117
-193 -150 -290 -150 -97 0 -149 26 -266 135 -138 127 -186 164 -266 201 -88
41 -182 51 -261 29z"/>
</g>
</svg>
